
// blender material: warrobot
material warrobot 
{
    receive_shadows on
    technique b2ogre_1382015203.912
    {
        pass b2ogre_1382015203.912
        {
            ambient 0.029314208775758743 0.026023292914032936 0.800000011920929 1.0
            diffuse 0.023451367370059595 0.020818634641448175 0.6400000190734865 1.0
            specular 0.5 0.5 0.5 1.0 12.5
            emissive 0.0 0.0 0.0 1.0
            alpha_to_coverage off
            colour_write on
            cull_hardware clockwise
            depth_check on
            depth_func less_equal
            depth_write on
            illumination_stage 
            light_clip_planes off
            light_scissor off
            lighting on
            normalise_normals off
            polygon_mode solid
            scene_blend one zero
            scene_blend_op add
            shading gouraud
            transparent_sorting on
        }
    }
}
